alu/modificacion/alu.vcd
$date
	Thu Oct 26 10:39:27 2023
$end
$version
	Icarus Verilog
$end
$timescale
	10ps
$end
$scope module alu_tb $end
$var wire 1 ! t_z $end
$var wire 1 " t_s $end
$var wire 1 # t_c $end
$var wire 4 $ t_R [3:0] $end
$var reg 1 % error $end
$var reg 1 & error_R $end
$var reg 1 ' error_c $end
$var reg 1 ( error_s $end
$var reg 1 ) error_z $end
$var reg 4 * t_A [3:0] $end
$var reg 4 + t_B [3:0] $end
$var reg 2 , t_Op [1:0] $end
$var reg 1 - t_cin $end
$var reg 1 . t_l $end
$var integer 32 / errores [31:0] $end
$scope module mat $end
$var wire 4 0 A [3:0] $end
$var wire 2 1 ALUOP [1:0] $end
$var wire 4 2 B [3:0] $end
$var wire 1 3 add1 $end
$var wire 1 - c_in $end
$var wire 1 4 cpl $end
$var wire 1 . l $end
$var wire 1 5 op1_A $end
$var wire 1 6 op2_B $end
$var wire 1 ! zero $end
$var wire 1 " sign $end
$var wire 1 # c_out $end
$var wire 4 7 R [3:0] $end
$var wire 4 8 Outul4 [3:0] $end
$var wire 4 9 Outsum4 [3:0] $end
$var wire 4 : OP2 [3:0] $end
$var wire 4 ; OP1 [3:0] $end
$scope module mux2_4l $end
$var wire 1 . s $end
$var wire 4 < Out [3:0] $end
$var wire 4 = B [3:0] $end
$var wire 4 > A [3:0] $end
$upscope $end
$scope module operandos1 $end
$var wire 4 ? A [3:0] $end
$var wire 4 @ B [3:0] $end
$var wire 1 3 add1 $end
$var wire 1 A cpl $end
$var wire 1 4 cppl $end
$var wire 1 5 op1_A $end
$var wire 1 6 op2_B $end
$var wire 4 B Outop2_B [3:0] $end
$var wire 4 C Outadd1 [3:0] $end
$var wire 4 D OP2 [3:0] $end
$var wire 4 E OP1 [3:0] $end
$scope module compl1cpl $end
$var wire 1 A cpl $end
$var wire 4 F Out [3:0] $end
$var wire 4 G Inp [3:0] $end
$upscope $end
$scope module mux2_4add1 $end
$var wire 4 H A [3:0] $end
$var wire 4 I B [3:0] $end
$var wire 1 3 s $end
$var wire 4 J Out [3:0] $end
$upscope $end
$scope module mux2_4op1_A $end
$var wire 4 K A [3:0] $end
$var wire 4 L B [3:0] $end
$var wire 1 5 s $end
$var wire 4 M Out [3:0] $end
$upscope $end
$scope module mux2_4op2_B $end
$var wire 4 N A [3:0] $end
$var wire 4 O B [3:0] $end
$var wire 1 6 s $end
$var wire 4 P Out [3:0] $end
$upscope $end
$upscope $end
$scope module sum4c_in $end
$var wire 4 Q A [3:0] $end
$var wire 4 R B [3:0] $end
$var wire 1 - c_in $end
$var wire 1 S c_out2 $end
$var wire 1 T c_out1 $end
$var wire 1 U c_out0 $end
$var wire 1 # c_out $end
$var wire 4 V S [3:0] $end
$scope module fa0 $end
$var wire 1 W a $end
$var wire 1 X b $end
$var wire 1 - c_in $end
$var wire 1 Y sum $end
$var wire 1 U c_out $end
$upscope $end
$scope module fa1 $end
$var wire 1 Z a $end
$var wire 1 [ b $end
$var wire 1 U c_in $end
$var wire 1 \ sum $end
$var wire 1 T c_out $end
$upscope $end
$scope module fa2 $end
$var wire 1 ] a $end
$var wire 1 ^ b $end
$var wire 1 T c_in $end
$var wire 1 _ sum $end
$var wire 1 S c_out $end
$upscope $end
$scope module fa3 $end
$var wire 1 ` a $end
$var wire 1 a b $end
$var wire 1 S c_in $end
$var wire 1 b sum $end
$var wire 1 # c_out $end
$upscope $end
$upscope $end
$scope module ul4ALUOP $end
$var wire 4 c A [3:0] $end
$var wire 4 d B [3:0] $end
$var wire 2 e S [1:0] $end
$var wire 4 f Out [3:0] $end
$scope module cl0 $end
$var wire 2 g S [1:0] $end
$var wire 1 h a $end
$var wire 1 i a_not $end
$var wire 1 j b $end
$var wire 1 k c_and $end
$var wire 1 l c_not $end
$var wire 1 m c_or $end
$var wire 1 n c_xor $end
$var wire 1 o out $end
$scope module multiplexor1 $end
$var wire 2 p S [1:0] $end
$var wire 1 k a $end
$var wire 1 m b $end
$var wire 1 n c $end
$var wire 1 l d $end
$var reg 1 o out $end
$upscope $end
$upscope $end
$scope module cl1 $end
$var wire 2 q S [1:0] $end
$var wire 1 r a $end
$var wire 1 s a_not $end
$var wire 1 t b $end
$var wire 1 u c_and $end
$var wire 1 v c_not $end
$var wire 1 w c_or $end
$var wire 1 x c_xor $end
$var wire 1 y out $end
$scope module multiplexor1 $end
$var wire 2 z S [1:0] $end
$var wire 1 u a $end
$var wire 1 w b $end
$var wire 1 x c $end
$var wire 1 v d $end
$var reg 1 y out $end
$upscope $end
$upscope $end
$scope module cl2 $end
$var wire 2 { S [1:0] $end
$var wire 1 | a $end
$var wire 1 } a_not $end
$var wire 1 ~ b $end
$var wire 1 !" c_and $end
$var wire 1 "" c_not $end
$var wire 1 #" c_or $end
$var wire 1 $" c_xor $end
$var wire 1 %" out $end
$scope module multiplexor1 $end
$var wire 2 &" S [1:0] $end
$var wire 1 !" a $end
$var wire 1 #" b $end
$var wire 1 $" c $end
$var wire 1 "" d $end
$var reg 1 %" out $end
$upscope $end
$upscope $end
$scope module cl3 $end
$var wire 2 '" S [1:0] $end
$var wire 1 (" a $end
$var wire 1 )" a_not $end
$var wire 1 *" b $end
$var wire 1 +" c_and $end
$var wire 1 ," c_not $end
$var wire 1 -" c_or $end
$var wire 1 ." c_xor $end
$var wire 1 /" out $end
$scope module multiplexor1 $end
$var wire 2 0" S [1:0] $end
$var wire 1 +" a $end
$var wire 1 -" b $end
$var wire 1 ." c $end
$var wire 1 ," d $end
$var reg 1 /" out $end
$upscope $end
$upscope $end
$upscope $end
$upscope $end
$scope task check $end
$var reg 5 1" expected_R [4:0] $end
$var reg 1 2" expected_c $end
$var reg 1 3" expected_s $end
$var reg 1 4" expected_z $end
$upscope $end
$upscope $end
$enddefinitions $end
#0
$dumpvars
x4"
x3"
x2"
bx 1"
b0 0"
0/"
x."
x-"
1,"
0+"
x*"
z)"
0("
b0 '"
b0 &"
0%"
x$"
x#"
1""
0!"
x~
z}
0|
b0 {
b0 z
0y
xx
xw
1v
0u
xt
zs
0r
b0 q
b0 p
0o
xn
xm
1l
0k
xj
zi
0h
b0 g
b0 f
b0 e
bx d
b0 c
xb
xa
0`
x_
x^
0]
x\
x[
0Z
xY
xX
0W
bx V
xU
xT
xS
bx R
b0 Q
b0 P
b0 O
b0 N
b0 M
b0 L
b0 K
b0 J
b1 I
b0 H
b0 G
bx F
b0 E
bx D
b0 C
b0 B
zA
b0 @
b0 ?
bx >
b0 =
bx <
b0 ;
bx :
bx 9
b0 8
bx 7
06
05
04
03
b0 2
b0 1
b0 0
b0 /
0.
0-
b0 ,
b0 +
b0 *
x)
x(
x'
x&
x%
bx $
x#
x"
x!
$end
#1
b1 /
1%
1)
1&
14"
1'
1(
03"
02"
b0 1"
#1000
b1 +
b1 2
b1 @
b1 O
#1001
b10 /
#2000
b10 +
b10 2
b10 @
b10 O
#2001
b11 /
#3000
b11 +
b11 2
b11 @
b11 O
#3001
b100 /
#4000
b100 +
b100 2
b100 @
b100 O
#4001
b101 /
#5000
b101 +
b101 2
b101 @
b101 O
#5001
b110 /
#6000
b110 +
b110 2
b110 @
b110 O
#6001
b111 /
#7000
b111 +
b111 2
b111 @
b111 O
#7001
b1000 /
#8000
b1000 +
b1000 2
b1000 @
b1000 O
#8001
b1001 /
#9000
b1001 +
b1001 2
b1001 @
b1001 O
#9001
b1010 /
#10000
b1010 +
b1010 2
b1010 @
b1010 O
#10001
b1011 /
#11000
b1011 +
b1011 2
b1011 @
b1011 O
#11001
b1100 /
#12000
b1100 +
b1100 2
b1100 @
b1100 O
#12001
b1101 /
#13000
b1101 +
b1101 2
b1101 @
b1101 O
#13001
b1110 /
#14000
b1110 +
b1110 2
b1110 @
b1110 O
#14001
b1111 /
#15000
b1111 +
b1111 2
b1111 @
b1111 O
#15001
b10000 /
#16000
b1 B
b1 G
b1 P
b1 *
b1 0
b1 ?
b1 L
b1 N
b0 +
b0 2
b0 @
b0 O
#16001
b10001 /
04"
b1 1"
#17000
b1 +
b1 2
b1 @
b1 O
#17001
b10010 /
#18000
b10 +
b10 2
b10 @
b10 O
#18001
b10011 /
#19000
b11 +
b11 2
b11 @
b11 O
#19001
b10100 /
#20000
b100 +
b100 2
b100 @
b100 O
#20001
b10101 /
#21000
b101 +
b101 2
b101 @
b101 O
#21001
b10110 /
#22000
b110 +
b110 2
b110 @
b110 O
#22001
b10111 /
#23000
b111 +
b111 2
b111 @
b111 O
#23001
b11000 /
#24000
b1000 +
b1000 2
b1000 @
b1000 O
#24001
b11001 /
#25000
b1001 +
b1001 2
b1001 @
b1001 O
#25001
b11010 /
#26000
b1010 +
b1010 2
b1010 @
b1010 O
#26001
b11011 /
#27000
b1011 +
b1011 2
b1011 @
b1011 O
#27001
b11100 /
#28000
b1100 +
b1100 2
b1100 @
b1100 O
#28001
b11101 /
#29000
b1101 +
b1101 2
b1101 @
b1101 O
#29001
b11110 /
#30000
b1110 +
b1110 2
b1110 @
b1110 O
#30001
b11111 /
#31000
b1111 +
b1111 2
b1111 @
b1111 O
#31001
b100000 /
#32000
b10 B
b10 G
b10 P
b10 *
b10 0
b10 ?
b10 L
b10 N
b0 +
b0 2
b0 @
b0 O
#32001
b100001 /
b10 1"
#33000
b1 +
b1 2
b1 @
b1 O
#33001
b100010 /
#34000
b10 +
b10 2
b10 @
b10 O
#34001
b100011 /
#35000
b11 +
b11 2
b11 @
b11 O
#35001
b100100 /
#36000
b100 +
b100 2
b100 @
b100 O
#36001
b100101 /
#37000
b101 +
b101 2
b101 @
b101 O
#37001
b100110 /
#38000
b110 +
b110 2
b110 @
b110 O
#38001
b100111 /
#39000
b111 +
b111 2
b111 @
b111 O
#39001
b101000 /
#40000
b1000 +
b1000 2
b1000 @
b1000 O
#40001
b101001 /
#41000
b1001 +
b1001 2
b1001 @
b1001 O
#41001
b101010 /
#42000
b1010 +
b1010 2
b1010 @
b1010 O
#42001
b101011 /
#43000
b1011 +
b1011 2
b1011 @
b1011 O
#43001
b101100 /
#44000
b1100 +
b1100 2
b1100 @
b1100 O
#44001
b101101 /
#45000
b1101 +
b1101 2
b1101 @
b1101 O
#45001
b101110 /
#46000
b1110 +
b1110 2
b1110 @
b1110 O
#46001
b101111 /
#47000
b1111 +
b1111 2
b1111 @
b1111 O
#47001
b110000 /
#48000
b11 B
b11 G
b11 P
b11 *
b11 0
b11 ?
b11 L
b11 N
b0 +
b0 2
b0 @
b0 O
#48001
b110001 /
b11 1"
#49000
b1 +
b1 2
b1 @
b1 O
#49001
b110010 /
#50000
b10 +
b10 2
b10 @
b10 O
#50001
b110011 /
#51000
b11 +
b11 2
b11 @
b11 O
#51001
b110100 /
#52000
b100 +
b100 2
b100 @
b100 O
#52001
b110101 /
#53000
b101 +
b101 2
b101 @
b101 O
#53001
b110110 /
#54000
b110 +
b110 2
b110 @
b110 O
#54001
b110111 /
#55000
b111 +
b111 2
b111 @
b111 O
#55001
b111000 /
#56000
b1000 +
b1000 2
b1000 @
b1000 O
#56001
b111001 /
#57000
b1001 +
b1001 2
b1001 @
b1001 O
#57001
b111010 /
#58000
b1010 +
b1010 2
b1010 @
b1010 O
#58001
b111011 /
#59000
b1011 +
b1011 2
b1011 @
b1011 O
#59001
b111100 /
#60000
b1100 +
b1100 2
b1100 @
b1100 O
#60001
b111101 /
#61000
b1101 +
b1101 2
b1101 @
b1101 O
#61001
b111110 /
#62000
b1110 +
b1110 2
b1110 @
b1110 O
#62001
b111111 /
#63000
b1111 +
b1111 2
b1111 @
b1111 O
#63001
b1000000 /
#64000
b100 B
b100 G
b100 P
b100 *
b100 0
b100 ?
b100 L
b100 N
b0 +
b0 2
b0 @
b0 O
#64001
b1000001 /
b100 1"
#65000
b1 +
b1 2
b1 @
b1 O
#65001
b1000010 /
#66000
b10 +
b10 2
b10 @
b10 O
#66001
b1000011 /
#67000
b11 +
b11 2
b11 @
b11 O
#67001
b1000100 /
#68000
b100 +
b100 2
b100 @
b100 O
#68001
b1000101 /
#69000
b101 +
b101 2
b101 @
b101 O
#69001
b1000110 /
#70000
b110 +
b110 2
b110 @
b110 O
#70001
b1000111 /
#71000
b111 +
b111 2
b111 @
b111 O
#71001
b1001000 /
#72000
b1000 +
b1000 2
b1000 @
b1000 O
#72001
b1001001 /
#73000
b1001 +
b1001 2
b1001 @
b1001 O
#73001
b1001010 /
#74000
b1010 +
b1010 2
b1010 @
b1010 O
#74001
b1001011 /
#75000
b1011 +
b1011 2
b1011 @
b1011 O
#75001
b1001100 /
#76000
b1100 +
b1100 2
b1100 @
b1100 O
#76001
b1001101 /
#77000
b1101 +
b1101 2
b1101 @
b1101 O
#77001
b1001110 /
#78000
b1110 +
b1110 2
b1110 @
b1110 O
#78001
b1001111 /
#79000
b1111 +
b1111 2
b1111 @
b1111 O
#79001
b1010000 /
#80000
b101 B
b101 G
b101 P
b101 *
b101 0
b101 ?
b101 L
b101 N
b0 +
b0 2
b0 @
b0 O
#80001
b1010001 /
b101 1"
#81000
b1 +
b1 2
b1 @
b1 O
#81001
b1010010 /
#82000
b10 +
b10 2
b10 @
b10 O
#82001
b1010011 /
#83000
b11 +
b11 2
b11 @
b11 O
#83001
b1010100 /
#84000
b100 +
b100 2
b100 @
b100 O
#84001
b1010101 /
#85000
b101 +
b101 2
b101 @
b101 O
#85001
b1010110 /
#86000
b110 +
b110 2
b110 @
b110 O
#86001
b1010111 /
#87000
b111 +
b111 2
b111 @
b111 O
#87001
b1011000 /
#88000
b1000 +
b1000 2
b1000 @
b1000 O
#88001
b1011001 /
#89000
b1001 +
b1001 2
b1001 @
b1001 O
#89001
b1011010 /
#90000
b1010 +
b1010 2
b1010 @
b1010 O
#90001
b1011011 /
#91000
b1011 +
b1011 2
b1011 @
b1011 O
#91001
b1011100 /
#92000
b1100 +
b1100 2
b1100 @
b1100 O
#92001
b1011101 /
#93000
b1101 +
b1101 2
b1101 @
b1101 O
#93001
b1011110 /
#94000
b1110 +
b1110 2
b1110 @
b1110 O
#94001
b1011111 /
#95000
b1111 +
b1111 2
b1111 @
b1111 O
#95001
b1100000 /
#96000
b110 B
b110 G
b110 P
b110 *
b110 0
b110 ?
b110 L
b110 N
b0 +
b0 2
b0 @
b0 O
#96001
b1100001 /
b110 1"
#97000
b1 +
b1 2
b1 @
b1 O
#97001
b1100010 /
#98000
b10 +
b10 2
b10 @
b10 O
#98001
b1100011 /
#99000
b11 +
b11 2
b11 @
b11 O
#99001
b1100100 /
#100000
b100 +
b100 2
b100 @
b100 O
#100001
b1100101 /
#101000
b101 +
b101 2
b101 @
b101 O
#101001
b1100110 /
#102000
b110 +
b110 2
b110 @
b110 O
#102001
b1100111 /
#103000
b111 +
b111 2
b111 @
b111 O
#103001
b1101000 /
#104000
b1000 +
b1000 2
b1000 @
b1000 O
#104001
b1101001 /
#105000
b1001 +
b1001 2
b1001 @
b1001 O
#105001
b1101010 /
#106000
b1010 +
b1010 2
b1010 @
b1010 O
#106001
b1101011 /
#107000
b1011 +
b1011 2
b1011 @
b1011 O
#107001
b1101100 /
#108000
b1100 +
b1100 2
b1100 @
b1100 O
#108001
b1101101 /
#109000
b1101 +
b1101 2
b1101 @
b1101 O
#109001
b1101110 /
#110000
b1110 +
b1110 2
b1110 @
b1110 O
#110001
b1101111 /
#111000
b1111 +
b1111 2
b1111 @
b1111 O
#111001
b1110000 /
#112000
b111 B
b111 G
b111 P
b111 *
b111 0
b111 ?
b111 L
b111 N
b0 +
b0 2
b0 @
b0 O
#112001
b1110001 /
b111 1"
#113000
b1 +
b1 2
b1 @
b1 O
#113001
b1110010 /
#114000
b10 +
b10 2
b10 @
b10 O
#114001
b1110011 /
#115000
b11 +
b11 2
b11 @
b11 O
#115001
b1110100 /
#116000
b100 +
b100 2
b100 @
b100 O
#116001
b1110101 /
#117000
b101 +
b101 2
b101 @
b101 O
#117001
b1110110 /
#118000
b110 +
b110 2
b110 @
b110 O
#118001
b1110111 /
#119000
b111 +
b111 2
b111 @
b111 O
#119001
b1111000 /
#120000
b1000 +
b1000 2
b1000 @
b1000 O
#120001
b1111001 /
#121000
b1001 +
b1001 2
b1001 @
b1001 O
#121001
b1111010 /
#122000
b1010 +
b1010 2
b1010 @
b1010 O
#122001
b1111011 /
#123000
b1011 +
b1011 2
b1011 @
b1011 O
#123001
b1111100 /
#124000
b1100 +
b1100 2
b1100 @
b1100 O
#124001
b1111101 /
#125000
b1101 +
b1101 2
b1101 @
b1101 O
#125001
b1111110 /
#126000
b1110 +
b1110 2
b1110 @
b1110 O
#126001
b1111111 /
#127000
b1111 +
b1111 2
b1111 @
b1111 O
#127001
b10000000 /
#128000
b1000 B
b1000 G
b1000 P
b1000 *
b1000 0
b1000 ?
b1000 L
b1000 N
b0 +
b0 2
b0 @
b0 O
#128001
b10000001 /
13"
b1000 1"
#129000
b1 +
b1 2
b1 @
b1 O
#129001
b10000010 /
#130000
b10 +
b10 2
b10 @
b10 O
#130001
b10000011 /
#131000
b11 +
b11 2
b11 @
b11 O
#131001
b10000100 /
#132000
b100 +
b100 2
b100 @
b100 O
#132001
b10000101 /
#133000
b101 +
b101 2
b101 @
b101 O
#133001
b10000110 /
#134000
b110 +
b110 2
b110 @
b110 O
#134001
b10000111 /
#135000
b111 +
b111 2
b111 @
b111 O
#135001
b10001000 /
#136000
b1000 +
b1000 2
b1000 @
b1000 O
#136001
b10001001 /
#137000
b1001 +
b1001 2
b1001 @
b1001 O
#137001
b10001010 /
#138000
b1010 +
b1010 2
b1010 @
b1010 O
#138001
b10001011 /
#139000
b1011 +
b1011 2
b1011 @
b1011 O
#139001
b10001100 /
#140000
b1100 +
b1100 2
b1100 @
b1100 O
#140001
b10001101 /
#141000
b1101 +
b1101 2
b1101 @
b1101 O
#141001
b10001110 /
#142000
b1110 +
b1110 2
b1110 @
b1110 O
#142001
b10001111 /
#143000
b1111 +
b1111 2
b1111 @
b1111 O
#143001
b10010000 /
#144000
b1001 B
b1001 G
b1001 P
b1001 *
b1001 0
b1001 ?
b1001 L
b1001 N
b0 +
b0 2
b0 @
b0 O
#144001
b10010001 /
b1001 1"
#145000
b1 +
b1 2
b1 @
b1 O
#145001
b10010010 /
#146000
b10 +
b10 2
b10 @
b10 O
#146001
b10010011 /
#147000
b11 +
b11 2
b11 @
b11 O
#147001
b10010100 /
#148000
b100 +
b100 2
b100 @
b100 O
#148001
b10010101 /
#149000
b101 +
b101 2
b101 @
b101 O
#149001
b10010110 /
#150000
b110 +
b110 2
b110 @
b110 O
#150001
b10010111 /
#151000
b111 +
b111 2
b111 @
b111 O
#151001
b10011000 /
#152000
b1000 +
b1000 2
b1000 @
b1000 O
#152001
b10011001 /
#153000
b1001 +
b1001 2
b1001 @
b1001 O
#153001
b10011010 /
#154000
b1010 +
b1010 2
b1010 @
b1010 O
#154001
b10011011 /
#155000
b1011 +
b1011 2
b1011 @
b1011 O
#155001
b10011100 /
#156000
b1100 +
b1100 2
b1100 @
b1100 O
#156001
b10011101 /
#157000
b1101 +
b1101 2
b1101 @
b1101 O
#157001
b10011110 /
#158000
b1110 +
b1110 2
b1110 @
b1110 O
#158001
b10011111 /
#159000
b1111 +
b1111 2
b1111 @
b1111 O
#159001
b10100000 /
#160000
b1010 B
b1010 G
b1010 P
b1010 *
b1010 0
b1010 ?
b1010 L
b1010 N
b0 +
b0 2
b0 @
b0 O
#160001
b10100001 /
b1010 1"
#161000
b1 +
b1 2
b1 @
b1 O
#161001
b10100010 /
#162000
b10 +
b10 2
b10 @
b10 O
#162001
b10100011 /
#163000
b11 +
b11 2
b11 @
b11 O
#163001
b10100100 /
#164000
b100 +
b100 2
b100 @
b100 O
#164001
b10100101 /
#165000
b101 +
b101 2
b101 @
b101 O
#165001
b10100110 /
#166000
b110 +
b110 2
b110 @
b110 O
#166001
b10100111 /
#167000
b111 +
b111 2
b111 @
b111 O
#167001
b10101000 /
#168000
b1000 +
b1000 2
b1000 @
b1000 O
#168001
b10101001 /
#169000
b1001 +
b1001 2
b1001 @
b1001 O
#169001
b10101010 /
#170000
b1010 +
b1010 2
b1010 @
b1010 O
#170001
b10101011 /
#171000
b1011 +
b1011 2
b1011 @
b1011 O
#171001
b10101100 /
#172000
b1100 +
b1100 2
b1100 @
b1100 O
#172001
b10101101 /
#173000
b1101 +
b1101 2
b1101 @
b1101 O
#173001
b10101110 /
#174000
b1110 +
b1110 2
b1110 @
b1110 O
#174001
b10101111 /
#175000
b1111 +
b1111 2
b1111 @
b1111 O
#175001
b10110000 /
#176000
b1011 B
b1011 G
b1011 P
b1011 *
b1011 0
b1011 ?
b1011 L
b1011 N
b0 +
b0 2
b0 @
b0 O
#176001
b10110001 /
b1011 1"
#177000
b1 +
b1 2
b1 @
b1 O
#177001
b10110010 /
#178000
b10 +
b10 2
b10 @
b10 O
#178001
b10110011 /
#179000
b11 +
b11 2
b11 @
b11 O
#179001
b10110100 /
#180000
b100 +
b100 2
b100 @
b100 O
#180001
b10110101 /
#181000
b101 +
b101 2
b101 @
b101 O
#181001
b10110110 /
#182000
b110 +
b110 2
b110 @
b110 O
#182001
b10110111 /
#183000
b111 +
b111 2
b111 @
b111 O
#183001
b10111000 /
#184000
b1000 +
b1000 2
b1000 @
b1000 O
#184001
b10111001 /
#185000
b1001 +
b1001 2
b1001 @
b1001 O
#185001
b10111010 /
#186000
b1010 +
b1010 2
b1010 @
b1010 O
#186001
b10111011 /
#187000
b1011 +
b1011 2
b1011 @
b1011 O
#187001
b10111100 /
#188000
b1100 +
b1100 2
b1100 @
b11