alu/alu.vcd
$date
	Thu Oct 26 10:06:09 2023
$end
$version
	Icarus Verilog
$end
$timescale
	10ps
$end
$scope module alu_tb $end
$var wire 1 ! t_z $end
$var wire 1 " t_s $end
$var wire 1 # t_c $end
$var wire 4 $ t_R [3:0] $end
$var reg 1 % error $end
$var reg 1 & error_R $end
$var reg 1 ' error_c $end
$var reg 1 ( error_s $end
$var reg 1 ) error_z $end
$var reg 4 * t_A [3:0] $end
$var reg 4 + t_B [3:0] $end
$var reg 2 , t_Op [1:0] $end
$var reg 1 - t_cin $end
$var reg 1 . t_l $end
$var integer 32 / errores [31:0] $end
$scope module mat $end
$var wire 4 0 A [3:0] $end
$var wire 2 1 ALUOP [1:0] $end
$var wire 4 2 B [3:0] $end
$var wire 1 3 add1 $end
$var wire 1 - c_in $end
$var wire 1 4 cpl $end
$var wire 1 . l $end
$var wire 1 5 op1_A $end
$var wire 1 6 op2_B $end
$var wire 1 ! zero $end
$var wire 1 " sign $end
$var wire 1 # c_out $end
$var wire 4 7 R [3:0] $end
$var wire 4 8 Outul4 [3:0] $end
$var wire 4 9 Outsum4 [3:0] $end
$var wire 4 : Outop2_B [3:0] $end
$var wire 4 ; Outop1_A [3:0] $end
$var wire 4 < Outcompl1 [3:0] $end
$var wire 4 = Outadd1 [3:0] $end
$scope module compl1cpl $end
$var wire 1 4 cpl $end
$var wire 4 > Out [3:0] $end
$var wire 4 ? Inp [3:0] $end
$upscope $end
$scope module mux2_4add1 $end
$var wire 4 @ A [3:0] $end
$var wire 4 A B [3:0] $end
$var wire 1 3 s $end
$var wire 4 B Out [3:0] $end
$upscope $end
$scope module mux2_4l $end
$var wire 1 . s $end
$var wire 4 C Out [3:0] $end
$var wire 4 D B [3:0] $end
$var wire 4 E A [3:0] $end
$upscope $end
$scope module mux2_4op1_A $end
$var wire 4 F A [3:0] $end
$var wire 4 G B [3:0] $end
$var wire 1 5 s $end
$var wire 4 H Out [3:0] $end
$upscope $end
$scope module mux2_4op2_B $end
$var wire 4 I A [3:0] $end
$var wire 4 J B [3:0] $end
$var wire 1 6 s $end
$var wire 4 K Out [3:0] $end
$upscope $end
$scope module sum4c_in $end
$var wire 4 L A [3:0] $end
$var wire 4 M B [3:0] $end
$var wire 1 - c_in $end
$var wire 1 N c_out2 $end
$var wire 1 O c_out1 $end
$var wire 1 P c_out0 $end
$var wire 1 # c_out $end
$var wire 4 Q S [3:0] $end
$scope module fa0 $end
$var wire 1 R a $end
$var wire 1 S b $end
$var wire 1 - c_in $end
$var wire 1 T sum $end
$var wire 1 P c_out $end
$upscope $end
$scope module fa1 $end
$var wire 1 U a $end
$var wire 1 V b $end
$var wire 1 P c_in $end
$var wire 1 W sum $end
$var wire 1 O c_out $end
$upscope $end
$scope module fa2 $end
$var wire 1 X a $end
$var wire 1 Y b $end
$var wire 1 O c_in $end
$var wire 1 Z sum $end
$var wire 1 N c_out $end
$upscope $end
$scope module fa3 $end
$var wire 1 [ a $end
$var wire 1 \ b $end
$var wire 1 N c_in $end
$var wire 1 ] sum $end
$var wire 1 # c_out $end
$upscope $end
$upscope $end
$scope module ul4ALUOP $end
$var wire 4 ^ A [3:0] $end
$var wire 4 _ B [3:0] $end
$var wire 2 ` S [1:0] $end
$var wire 4 a Out [3:0] $end
$scope module cl0 $end
$var wire 2 b S [1:0] $end
$var wire 1 c a $end
$var wire 1 d a_not $end
$var wire 1 e b $end
$var wire 1 f c_and $end
$var wire 1 g c_not $end
$var wire 1 h c_or $end
$var wire 1 i c_xor $end
$var wire 1 j out $end
$scope module multiplexor1 $end
$var wire 2 k S [1:0] $end
$var wire 1 f a $end
$var wire 1 h b $end
$var wire 1 i c $end
$var wire 1 g d $end
$var reg 1 j out $end
$upscope $end
$upscope $end
$scope module cl1 $end
$var wire 2 l S [1:0] $end
$var wire 1 m a $end
$var wire 1 n a_not $end
$var wire 1 o b $end
$var wire 1 p c_and $end
$var wire 1 q c_not $end
$var wire 1 r c_or $end
$var wire 1 s c_xor $end
$var wire 1 t out $end
$scope module multiplexor1 $end
$var wire 2 u S [1:0] $end
$var wire 1 p a $end
$var wire 1 r b $end
$var wire 1 s c $end
$var wire 1 q d $end
$var reg 1 t out $end
$upscope $end
$upscope $end
$scope module cl2 $end
$var wire 2 v S [1:0] $end
$var wire 1 w a $end
$var wire 1 x a_not $end
$var wire 1 y b $end
$var wire 1 z c_and $end
$var wire 1 { c_not $end
$var wire 1 | c_or $end
$var wire 1 } c_xor $end
$var wire 1 ~ out $end
$scope module multiplexor1 $end
$var wire 2 !" S [1:0] $end
$var wire 1 z a $end
$var wire 1 | b $end
$var wire 1 } c $end
$var wire 1 { d $end
$var reg 1 ~ out $end
$upscope $end
$upscope $end
$scope module cl3 $end
$var wire 2 "" S [1:0] $end
$var wire 1 #" a $end
$var wire 1 $" a_not $end
$var wire 1 %" b $end
$var wire 1 &" c_and $end
$var wire 1 '" c_not $end
$var wire 1 (" c_or $end
$var wire 1 )" c_xor $end
$var wire 1 *" out $end
$scope module multiplexor1 $end
$var wire 2 +" S [1:0] $end
$var wire 1 &" a $end
$var wire 1 (" b $end
$var wire 1 )" c $end
$var wire 1 '" d $end
$var reg 1 *" out $end
$upscope $end
$upscope $end
$upscope $end
$upscope $end
$scope task check $end
$var reg 5 ," expected_R [4:0] $end
$var reg 1 -" expected_c $end
$var reg 1 ." expected_s $end
$var reg 1 /" expected_z $end
$upscope $end
$upscope $end
$enddefinitions $end
#0
$dumpvars
x/"
x."
x-"
bx ,"
b0 +"
0*"
0)"
0("
1'"
0&"
0%"
z$"
0#"
b0 ""
b0 !"
0~
0}
0|
1{
0z
0y
zx
0w
b0 v
b0 u
0t
0s
0r
1q
0p
0o
zn
0m
b0 l
b0 k
0j
0i
0h
1g
0f
0e
zd
0c
b0 b
b0 a
b0 `
b0 _
b0 ^
0]
0\
0[
0Z
0Y
0X
0W
0V
0U
0T
0S
0R
b0 Q
0P
0O
0N
b0 M
b0 L
b0 K
b0 J
b0 I
b0 H
b0 G
b0 F
b0 E
b0 D
b0 C
b0 B
b1 A
b0 @
b0 ?
b0 >
b0 =
b0 <
b0 ;
b0 :
b0 9
b0 8
b0 7
06
05
04
03
b0 2
b0 1
b0 0
b0 /
0.
0-
b0 ,
b0 +
b0 *
x)
x(
x'
x&
x%
b0 $
0#
0"
1!
$end
#1
0%
0)
0&
1/"
0'
0(
0."
0-"
b0 ,"
#1000
b1 +
b1 2
b1 J
#2000
b10 +
b10 2
b10 J
#3000
b11 +
b11 2
b11 J
#4000
b100 +
b100 2
b100 J
#5000
b101 +
b101 2
b101 J
#6000
b110 +
b110 2
b110 J
#7000
b111 +
b111 2
b111 J
#8000
b1000 +
b1000 2
b1000 J
#9000
b1001 +
b1001 2
b1001 J
#10000
b1010 +
b1010 2
b1010 J
#11000
b1011 +
b1011 2
b1011 J
#12000
b1100 +
b1100 2
b1100 J
#13000
b1101 +
b1101 2
b1101 J
#14000
b1110 +
b1110 2
b1110 J
#15000
b1111 +
b1111 2
b1111 J
#16000
0!
b1 $
b1 7
b1 C
b1 9
b1 E
b1 Q
1T
1h
1i
1S
1e
b1 <
b1 >
b1 M
b1 _
b1 :
b1 ?
b1 K
b1 *
b1 0
b1 G
b1 I
b0 +
b0 2
b0 J
#16001
0/"
b1 ,"
#17000
b1 +
b1 2
b1 J
#18000
b10 +
b10 2
b10 J
#19000
b11 +
b11 2
b11 J
#20000
b100 +
b100 2
b100 J
#21000
b101 +
b101 2
b101 J
#22000
b110 +
b110 2
b110 J
#23000
b111 +
b111 2
b111 J
#24000
b1000 +
b1000 2
b1000 J
#25000
b1001 +
b1001 2
b1001 J
#26000
b1010 +
b1010 2
b1010 J
#27000
b1011 +
b1011 2
b1011 J
#28000
b1100 +
b1100 2
b1100 J
#29000
b1101 +
b1101 2
b1101 J
#30000
b1110 +
b1110 2
b1110 J
#31000
b1111 +
b1111 2
b1111 J
#32000
b10 $
b10 7
b10 C
0T
b10 9
b10 E
b10 Q
1W
0h
0i
1r
1s
0S
1V
0e
1o
b10 <
b10 >
b10 M
b10 _
b10 :
b10 ?
b10 K
b10 *
b10 0
b10 G
b10 I
b0 +
b0 2
b0 J
#32001
b10 ,"
#33000
b1 +
b1 2
b1 J
#34000
b10 +
b10 2
b10 J
#35000
b11 +
b11 2
b11 J
#36000
b100 +
b100 2
b100 J
#37000
b101 +
b101 2
b101 J
#38000
b110 +
b110 2
b110 J
#39000
b111 +
b111 2
b111 J
#40000
b1000 +
b1000 2
b1000 J
#41000
b1001 +
b1001 2
b1001 J
#42000
b1010 +
b1010 2
b1010 J
#43000
b1011 +
b1011 2
b1011 J
#44000
b1100 +
b1100 2
b1100 J
#45000
b1101 +
b1101 2
b1101 J
#46000
b1110 +
b1110 2
b1110 J
#47000
b1111 +
b1111 2
b1111 J
#48000
b11 $
b11 7
b11 C
b11 9
b11 E
b11 Q
1T
1h
1i
1S
1e
b11 <
b11 >
b11 M
b11 _
b11 :
b11 ?
b11 K
b11 *
b11 0
b11 G
b11 I
b0 +
b0 2
b0 J
#48001
b11 ,"
#49000
b1 +
b1 2
b1 J
#50000
b10 +
b10 2
b10 J
#51000
b11 +
b11 2
b11 J
#52000
b100 +
b100 2
b100 J
#53000
b101 +
b101 2
b101 J
#54000
b110 +
b110 2
b110 J
#55000
b111 +
b111 2
b111 J
#56000
b1000 +
b1000 2
b1000 J
#57000
b1001 +
b1001 2
b1001 J
#58000
b1010 +
b1010 2
b1010 J
#59000
b1011 +
b1011 2
b1011 J
#60000
b1100 +
b1100 2
b1100 J
#61000
b1101 +
b1101 2
b1101 J
#62000
b1110 +
b1110 2
b1110 J
#63000
b1111 +
b1111 2
b1111 J
#64000
b100 $
b100 7
b100 C
0T
0W
b100 9
b100 E
b100 Q
1Z
0h
0i
0r
0s
1|
1}
0S
0V
1Y
0e
0o
1y
b100 <
b100 >
b100 M
b100 _
b100 :
b100 ?
b100 K
b100 *
b100 0
b100 G
b100 I
b0 +
b0 2
b0 J
#64001
b100 ,"
#65000
b1 +
b1 2
b1 J
#66000
b10 +
b10 2
b10 J
#67000
b11 +
b11 2
b11 J
#68000
b100 +
b100 2
b100 J
#69000
b101 +
b101 2
b101 J
#70000
b110 +
b110 2
b110 J
#71000
b111 +
b111 2
b111 J
#72000
b1000 +
b1000 2
b1000 J
#73000
b1001 +
b1001 2
b1001 J
#74000
b1010 +
b1010 2
b1010 J
#75000
b1011 +
b1011 2
b1011 J
#76000
b1100 +
b1100 2
b1100 J
#77000
b1101 +
b1101 2
b1101 J
#78000
b1110 +
b1110 2
b1110 J
#79000
b1111 +
b1111 2
b1111 J
#80000
b101 $
b101 7
b101 C
b101 9
b101 E
b101 Q
1T
1h
1i
1S
1e
b101 <
b101 >
b101 M
b101 _
b101 :
b101 ?
b101 K
b101 *
b101 0
b101 G
b101 I
b0 +
b0 2
b0 J
#80001
b101 ,"
#81000
b1 +
b1 2
b1 J
#82000
b10 +
b10 2
b10 J
#83000
b11 +
b11 2
b11 J
#84000
b100 +
b100 2
b100 J
#85000
b101 +
b101 2
b101 J
#86000
b110 +
b110 2
b110 J
#87000
b111 +
b111 2
b111 J
#88000
b1000 +
b1000 2
b1000 J
#89000
b1001 +
b1001 2
b1001 J
#90000
b1010 +
b1010 2
b1010 J
#91000
b1011 +
b1011 2
b1011 J
#92000
b1100 +
b1100 2
b1100 J
#93000
b1101 +
b1101 2
b1101 J
#94000
b1110 +
b1110 2
b1110 J
#95000
b1111 +
b1111 2
b1111 J
#96000
b110 $
b110 7
b110 C
0T
b110 9
b110 E
b110 Q
1W
0h
0i
1r
1s
0S
1V
0e
1o
b110 <
b110 >
b110 M
b110 _
b110 :
b110 ?
b110 K
b110 *
b110 0
b110 G
b110 I
b0 +
b0 2
b0 J
#96001
b110 ,"
#97000
b1 +
b1 2
b1 J
#98000
b10 +
b10 2
b10 J
#99000
b11 +
b11 2
b11 J
#100000
b100 +
b100 2
b100 J
#101000
b101 +
b101 2
b101 J
#102000
b110 +
b110 2
b110 J
#103000
b111 +
b111 2
b111 J
#104000
b1000 +
b1000 2
b1000 J
#105000
b1001 +
b1001 2
b1001 J
#106000
b1010 +
b1010 2
b1010 J
#107000
b1011 +
b1011 2
b1011 J
#108000
b1100 +
b1100 2
b1100 J
#109000
b1101 +
b1101 2
b1101 J
#110000
b1110 +
b1110 2
b1110 J
#111000
b1111 +
b1111 2
b1111 J
#112000
b111 $
b111 7
b111 C
b111 9
b111 E
b111 Q
1T
1h
1i
1S
1e
b111 <
b111 >
b111 M
b111 _
b111 :
b111 ?
b111 K
b111 *
b111 0
b111 G
b111 I
b0 +
b0 2
b0 J
#112001
b111 ,"
#113000
b1 +
b1 2
b1 J
#114000
b10 +
b10 2
b10 J
#115000
b11 +
b11 2
b11 J
#116000
b100 +
b100 2
b100 J
#117000
b101 +
b101 2
b101 J
#118000
b110 +
b110 2
b110 J
#119000
b111 +
b111 2
b111 J
#120000
b1000 +
b1000 2
b1000 J
#121000
b1001 +
b1001 2
b1001 J
#122000
b1010 +
b1010 2
b1010 J
#123000
b1011 +
b1011 2
b1011 J
#124000
b1100 +
b1100 2
b1100 J
#125000
b1101 +
b1101 2
b1101 J
#126000
b1110 +
b1110 2
b1110 J
#127000
b1111 +
b1111 2
b1111 J
#128000
1"
b1000 $
b1000 7
b1000 C
0T
0W
0Z
b1000 9
b1000 E
b1000 Q
1]
0h
0i
0r
0s
0|
0}
1("
1)"
0S
0V
0Y
1\
0e
0o
0y
1%"
b1000 <
b1000 >
b1000 M
b1000 _
b1000 :
b1000 ?
b1000 K
b1000 *
b1000 0
b1000 G
b1000 I
b0 +
b0 2
b0 J
#128001
1."
b1000 ,"
#129000
b1 +
b1 2
b1 J
#130000
b10 +
b10 2
b10 J
#131000
b11 +
b11 2
b11 J
#132000
b100 +
b100 2
b100 J
#133000
b101 +
b101 2
b101 J
#134000
b110 +
b110 2
b110 J
#135000
b111 +
b111 2
b111 J
#136000
b1000 +
b1000 2
b1000 J
#137000
b1001 +
b1001 2
b1001 J
#138000
b1010 +
b1010 2
b1010 J
#139000
b1011 +
b1011 2
b1011 J
#140000
b1100 +
b1100 2
b1100 J
#141000
b1101 +
b1101 2
b1101 J
#142000
b1110 +
b1110 2
b1110 J
#143000
b1111 +
b1111 2
b1111 J
#144000
b1001 $
b1001 7
b1001 C
b1001 9
b1001 E
b1001 Q
1T
1h
1i
1S
1e
b1001 <
b1001 >
b1001 M
b1001 _
b1001 :
b1001 ?
b1001 K
b1001 *
b1001 0
b1001 G
b1001 I
b0 +
b0 2
b0 J
#144001
b1001 ,"
#145000
b1 +
b1 2
b1 J
#146000
b10 +
b10 2
b10 J
#147000
b11 +
b11 2
b11 J
#148000
b100 +
b100 2
b100 J
#149000
b101 +
b101 2
b101 J
#150000
b110 +
b110 2
b110 J
#151000
b111 +
b111 2
b111 J
#152000
b1000 +
b1000 2
b1000 J
#153000
b1001 +
b1001 2
b1001 J
#154000
b1010 +
b1010 2
b1010 J
#155000
b1011 +
b1011 2
b1011 J
#156000
b1100 +
b1100 2
b1100 J
#157000
b1101 +
b1101 2
b1101 J
#158000
b1110 +
b1110 2
b1110 J
#159000
b1111 +
b1111 2
b1111 J
#160000
b1010 $
b1010 7
b1010 C
0T
b1010 9
b1010 E
b1010 Q
1W
0h
0i
1r
1s
0S
1V
0e
1o
b1010 <
b1010 >
b1010 M
b1010 _
b1010 :
b1010 ?
b1010 K
b1010 *
b1010 0
b1010 G
b1010 I
b0 +
b0 2
b0 J
#160001
b1010 ,"
#161000
b1 +
b1 2
b1 J
#162000
b10 +
b10 2
b10 J
#163000
b11 +
b11 2
b11 J
#164000
b100 +
b100 2
b100 J
#165000
b101 +
b101 2
b101 J
#166000
b110 +
b110 2
b110 J
#167000
b111 +
b111 2
b111 J
#168000
b1000 +
b1000 2
b1000 J
#169000
b1001 +
b1001 2
b1001 J
#170000
b1010 +
b1010 2
b1010 J
#171000
b1011 +
b1011 2
b1011 J
#172000
b1100 +
b1100 2
b1100 J
#173000
b1101 +
b1101 2
b1101 J
#174000
b1110 +
b1110 2
b1110 J
#175000
b1111 +
b1111 2
b1111 J
#176000
b1011 $
b1011 7
b1011 C
b1011 9
b1011 E
b1011 Q
1T
1h
1i
1S
1e
b1011 <
b1011 >
b1011 M
b1011 _
b1011 :
b1011 ?
b1011 K
b1011 *
b1011 0
b1011 G
b1011 I
b0 +
b0 2
b0 J
#176001
b1011 ,"
#177000
b1 +
b1 2
b1 J
#178000
b10 +
b10 2
b10 J
#179000
b11 +
b11 2
b11 J
#180000
b100 +
b100 2
b100 J
#181000
b101 +
b101 2
b101 J
#182000
b110 +
b110 2
b110 J
#183000
b111 +
b111 2
b111 J
#184000
b1000 +
b1000 2
b1000 J
#185000
b1001 +
b1001 2
b1001 J
#186000
b1010 +
b1010 2
b1010 J
#187000
b1011 +
b1011 2
b1011 J
#188000
b1100 +
b1100 2
b1100 J
#189000
b1101 +
b1101 2
b1101 J
#190000
b1110 +
b1110 2
b1110 J
#191000
b1111 +
b1111 2
b1111 J
#192000
b1100 $
b1100 7
b1100 C
0T
0W
b1100 9
b1100 E
b1100 Q
1Z
0h
0i
0r
0s
1|
1}
0S
0V
1Y
0e
0o
1y
b1100 <
b1100 >
b1100 M
b1100 _
b1100 :
b1100 ?
b1100 K
b1100 *
b1100 0
b1100 G
b1100 I
b0 +
b0 2
b0 J
#192001
b1100 ,"
#193000
b1 +
b1 2
b1 J
#194000
b10 +
b10 2
b10 J
#195000
b11 +
b11 2
b11 J
#196000
b100 +
b100 2
b100 J
#197000
b101 +
b101 2
b101 J
#198000
b110 +
b110 2
b110 J
#199000
b111 +
b111 2
b111 J
#200000
b1000 +
b1000 2
b1000 J
#201000
b1001 +
b1001 2
b1001 J
#202000
b1010 +
b1010 2
b1010 J
#203000
b1011 +
b1011 2
b1011 J
#204000
b1100 +
b1100 2
b1100 J
#205000
b1101 +
b1101 2
b1101 J
#206000
b1110 +
b1110 2
b1110 J
#207000
b1111 +
b1111 2
b1111 J
#208000
b1101 $
b1101 7
b1101 C
b1101 9
b1101 E
b1101 Q
1T
1h
1i
1S
1e
b1101 <
b1101 >
b1101 M
b1101 _
b1101 :
b1101 ?
b1101 K
b1101 *
b1101 0
b1101 G
b1101 I
b0 +
b0 2
b0 J
#208001
b1101 ,"
#209000
b1 +
b1 2
b1 J
#210000
b10 +
b10 2
b10 J
#211000
b11 +
b11 2
b11 J
#212000
b100 +
b100 2
b100 J
#213000
b101 +
b101 2
b101 J
#214000
b110 +
b110 2
b110 J
#215000
b111 +
b111 2
b111 J
#216000
b1000 +
b1000 2
b1000 J
#217000
b1001 +
b1001 2
b1001 J
#218000
b1010 +
b1010 2
b1010 J
#219000
b1011 +
b1011 2
b1011 J
#220000
b1100 +
b1100 2
b1100 J
#221000
b1101 +
b1101 2
b1101 J
#222000
b1110 +
b1110 2
b1110 J
#223000
b1111 +
b1111 2
b1111 J
#224000
b1110 $
b1110 7
b1110 C
0T
b1110 9
b1110 E
b1110 Q
1W
0h
0i
1r
1s
0S
1V
0e
1o
b1110 <
b1110 >
b1110 M
b1110 _
b1110 :
b1110 ?
b1110 K
b1110 *
b1110 0
b1110 G
b1110 I
b0 +
b0 2
b0 J
#224001
b1110 ,"
#225000
b1 +
b1 2
b1 J
#226000
b10 +
b10 2
b10 J
#227000
b11 +
b11 2
b11 J
#228000
b100 +
b100 2
b100 J
#229000
b101 +
b101 2
b101 J
#230000
b110 +
b110 2
b110 J
#231000
b111 +
b111 2
b111 J
#232000
b1000 +
b1000 2
b1000 J
#233000
b1001 +
b1001 2
b1001 J
#234000
b1010 +
b1010 2
b1010 J
#235000
b1011 +
b1011 2
b1011 J
#236000
b1100 +
b1100 2
b1100 J
#237000
b1101 +
b1101 2
b1101 J
#238000
b1110 +
b1110 2
b1110 J
#239000
b1111 +
b1111 2
b1111 J
#240000
b1111 $
b1111 7
b1111 C
b1111 9
b1111 E
b1111 Q
1T
1h
1i
1S
1e
b1111 <
b1111 >
b1111 M
b1111 _
b1111 :
b1111 ?
b1111 K
b1111 *
b1111 0
b1111 G
b1111 I
b0 +
b0 2
b0 J
#240001
b1111 ,"
#241000
b1 +
b1 2
b1 J
#242000
b10 +
b10 2
b10 J
#243000
b11 +
b11 2
b11 J
#244000
b100 +
b100 2
b100 J
#245000
b101 +
b101 2
b101 J
#246000
b110 +
b110 2
b110 J
#247000
b111 +
b111 2
b111 J
#248000
b1000 +
b1000 2
b1000 J
#249000
b1001 +
b1001 2
b1001 J
#250000
b1010 +
b1010 2
b1010 J
#251000
b1011 +
b1011 2
b1011 J
#252000
b1100 +
b1100 2
b1100 J
#253000
b1101 +
b1101 2
b1101 J
#254000
b1110 +
b1110 2
b1110 J
#255000
b1111 +
b1111 2
b1111 J
#256000
0"
0Z
0]
0h
0i
0r
0s
0|
0}
0("
0)"
0S
0V
0Y
0\
0e
0o
0y
0%"
b1 $
b1 7
b1 C
0W
0O
b0 <
b0 >
b0 M
b0 _
b1 9
b1 E
b1 Q
1T
0P
b0 :
b0 ?
b0 K
1-
b0 *
b0 0
b0 G
b0 I
b0 +
b0 2
b0 J
#256001
0."
b1 ,"
#257000
b1 +
b1 2
b1 J
#258000
b10 +
b10 2
b10 J
#259000
b11 +
b11 2
b11 J
#260000
b100 +
b100 2
b100 J
#261000
b101 +
b101 2
b101 J
#262000
b110 +
b110 2
b110 J
#263000
b111 +
b111 2
b111 J
#264000
b1000 +
b1000 2
b1000 J
#265000
b1001 +
b1001 2
b1001 J
#266000
b1010 +
b1010 2
b1010 J
#267000
b1011 +
b1011 2
b1011 J
#268000
b1100 +
b1100 2
b1100 J
#269000
b1101 +
b1101 2
b1101 J
#270000
b1110 +
b1110 2
b1110 J
#271000
b1111 +
b1111 2
b1111 J
#272000
b10 $
b10 7
b10 C
1W
b10 9
b10 E
b10 Q
0T
1P
1h
1i
1S
1e
b1 <
b1 >
b1 M
b1 _
b1 :
b1 ?
b1 K
b1 *
b1 0
b1 G
b1 I
b0 +
b0 2
b0 J
#272001
b10 ,"
#273000
b1 +
b1 2
b1 J
#274000
b10 +
b10 2
b10 J
#275000
b11 +
b11 2
b11 J
#276000
b100 +
b100 2
b100 J
#277000
b101 +
b101 2
b101 J
#278000
b110 +
b110 2
b110 J
#279000
b111 +
b111 2
b111 J
#280000
b1000 +
b1000 2
b1000 J
#281000
b1001 +
b1001 2
b1001 J
#282000
b1010 +
b1010 2
b1010 J
#283000
b1011 +
b1011 2
b1011 J
#284000
b1100 +
b1100 2
b1100 J
#285000
b1101 +
b1101 2
b1101 J
#286000
b1110 +
b1110 2
b1110 J
#287000
b1111 +
b1111 2
b1111 J
#288000
b11 $
b11 7
b11 C
0Z
1T
0P
b11 9
b11 E
b11 Q
1W
0O
0h
0i
1r
1s
0S
1V
0e
1o
b10 <
b10 >
b10 M
b10 _
b10 :
b10 ?
b10 K
b10 *
b10 0
b10 G
b10 I
b0 +
b0 2
b0 J
#288001
b11 ,"
#289000
b1 +
b1 2
b1 J
#290000
b10 +
b10 2
b10 J
#291000
b11 +
b11 2
b11 J
#292000
b100 +
b100 2
b100 J
#293000
b101 +
b101 2
b101 J
#294000
b110 +
b110 2
b110 J
#295000
b111 +
b111 2
b111 J
#296000
b1000 +
b1000 2
b1000 J
#297000
b1001 +
b1001 2
b1001 J
#298000
b1010 +
b1010 2
b1010 J
#299000
b1011 +
b1011 2
b1011 J
#300000
b1100 +
b1100 2
b1100 J
#301000
b1101 +
b1101 2
b1101 J
#302000
b1110 +
b1110 2
b1110 J
#303000
b1111 +
b1111 2
b1111 J
#304000
0!
1Z
b100 $
b100 7
b100 C
0W
1O
b100 9
b100 E
b100 Q
0T
1P
1h
1i
1S
1e
b11 <
b11 >
b11 M
b11 _
b11 :
b11 ?
b11 K
b11 *
b11 0
b11 G
b11 I
b0 +
b0 2
b0 J
#304001
b100 ,"
#305000
b1 +
b1 2
b1 J
#306000
b10 +
b10 2
b10 J
#307000
b11 +
b11 2
b11 J
#308000
b100 +
b100 2
b100 J
#309000
b101 +
b101 2
b101 J
#310000
b110 +
b110 2
b110 J
#311000
b111 +
b111 2
b111 J
#312000
b1000 +
b1000 2
b1000 J
#313000
b1001 +
b1001 2
b1001 J
#314000
b1010 +
b1010 2
b1010 J
#315000
b1011 +
b1011 2
b1011 J
#316000
b1100 +
b1100 2
b1100 J
#317000
b1101 +
b1101 2
b1101 J
#318000
b1110 +
b1110 2
b1110 J
#319000
b1111 +
b1111 2
b1111 J
#320000
0"
b101 $
b101 7
b101 C
0]
1T
0P
0W
0O
b101 9
b101 E
b101 Q
1Z
0N
0h
0i
0r
0s
1|
1}
0S
0V
1Y
0e
0o
1y
b100 <
b100 >
b100 M
b100 _
b100 :
b100 ?
b100 K
b100 *
b100 0
b100 G
b100 I
b0 +
b0 2
b0 J
#320001
b101 ,"
#321000
b1 +
b1 2
b1 J
#322000
b10 +
b10 2
b10 J
#323000
b11 +
b11 2
b11 J
#324000
b100 +
b100 2
b100 J
#325000
b101 +
b101 2
b101 J
#326000
b110 +
b110 2
b110 J
#327000
b111 +
b111 2
b111 J
#328000
b1000 +
b1000 2
b1000 J
#329000
b1001 +
b1001 2
b1001 J
#330000
b1010 +
b1010 2
b1010 J
#331000
b1011 +
b1011 2
b1011 J
#332000
b1100 +
b1100 2
b1100 J
#333000
b1101 +
b1101 2
b1101 J
#334000
b1110 +
b1110 2
b1110 J
#335000
b1111 +
b1111 2
b1111 J
#336000
b110 $
b110 7
b110 C
1W
b110 9
b110 E
b110 Q
0T
1P
1h
1i
1S
1e
b101 <
b101 >
b101 M
b101 _
b101 :
b101 ?
b101 K
b101 *
b101 0
b101 G
b101 I
b0 +
b0 2
b0 J
#336001
b110 ,"
#337000
b1 +
b1 2
b1 J
#338000
b10 +
b10 2
b10 J
#339000
b11 +
b11 2
b11 J
#340000
b100 +
b100 2
b100 J
#341000
b101 +
b101 2
b101 J
#342000
b110 +
b110 2
b110 J
#343000
b111 +
b111 2
b111 J
#344000
b1000 +
b1000 2
b1000 J
#345000
b1001 +
b1001 2
b1001 J
#346000
b1010 +
b1010 2
b1010 J
#347000
b1011 +
b1011 2
b1011 J
#348000
b1100 +
b1100 2
b1100 J
#349000
b1101 +
b1101 2
b1101 J
#350000
b1110 +
b1110 2
b1110 J
#351000
b1111 +
b1111 2
b1111 J
#352000
0"
0]
b111 $
b111 7
b111 C
1Z
0N
1T
0P
b111 9
b111 E
b111 Q
1W
0O
0h
0i
1r
1s
0S
1V
0e
1o
b110 <
b110 >
b110 M
b110 _
b110 :
b110 ?
b110 K
b110 *
b110 0
b110 G
b110 I
b0 +
b0 2
b0 J
#352001
b111 ,"
#353000
b1 +
b1 2
b1 J
#354000
b10 +
b10 2
b10 J
#355000
b11 +
b11 2
b11 J
#356000
b100 +
b100 2
b100 J
#357000
b101 +
b101 2
b101 J
#358000
b110 +
b110 2
b110 J
#359000
b111 +
b111 2
b111 J
#360000
b1000 +
b1000 2
b1000 J
#361000
b1001 +
b1001 2
b1001 J
#362000
b1010 +
b1010 2
b1010 J
#363000
b1011 +
b1011 2
b1011 J
#364000
b1100 +
b1100 2
b1100 J
#365000
b1101 +
b1101 2
b1101 J
#366000
b1110 +
b1110 2
b1110 J
#367000
b1111 +
b1111 2
b1111 J
#368000
1"
1]
0Z
1N
b1000 $
b1000 7
b1000 C
0W
1O
b1000 9
b1000 E
b1000 Q
0T
1P
1h
1i
1S
1e
b111 <
b111 >
b111 M
b111 _
b111 :
b111 ?
b111 K
b111 *
b111 0
b111 G
b111 I
b0 +
b0 2
b0 J
#368001
1."
b1000 ,"
#369000
b1 +
b1 2
b1 J
#370000
b10 +
b10 2
b10 J
#371000
b11 +
b11 2
b11 J
#372000
b100 +
b100 2
b100 J
#373000
b101 +
b101 2
b101 J
#374000
b110 +
b110 2
b110 J
#375000
b111 +
b111 2
b111 J
#376000
b1000 +
b1000 2
b1000 J
#377000
b1001 +
b1001 2
b1001 J
#378000
b1010 +
b1010 2
b1010 J
#379000
b1011 +
b1011 2
b1011 J
#380000
b1100 +
b1100 2
b1100 J
#381000
b1101 +
b1101 2
b1101 J
#382000
b1110 +
b1110 2
b1110 J
#383000
b1111 +
b1111 2
b1111 J
#384000
1"
b1001 $
b1001 7
b1001 C
1T
0P
0W
0O
0Z
0N
b1001 9
b1001 E
b1001 Q
1]
0#
0h
0i
0r
0s
0|
0}
1("
1)"
0S
0V
0Y
1\
0e
0o
0y
1%"
b1000 <
b1000 >
b1000 M
b1000 _
b1000 :
b1000 ?
b1000 K
b1000 *
b1000 0
b1000 G
b1000 I
b0 +
b0 2
b0 J
#384001
b1001 ,"
#385000
b1 +
b1 2
b1 J
#386000
b10 +
b10 2
b10 J
#387000
b11 +
b11 2
b11 J
#388000
b100 +
b100 2
b100 J
#389000
b101 +
b101 2
b101 J
#390000
b110 +
b110 2
b110 J
#391000
b111 +
b111 2
b111 J
#392000
b1000 +
b1000 2
b1000 J
#393000
b1001 +
b1001 2
b1001 J
#394000
b1010 +
b1010 2
b1010 J
#395000
b1011 +
b1011 2
b1011 J
#396000
b1100 +
b1100 2
b1100 J
#397000
b1101 +
b1101 2
b1101 J
#398000
b1110 +
b1110 2
b1110 J
#399000
b1111 +
b1111 2
b1111 J
#400000
b1010 $
b1010 7
b1010 C
1W
b1010 9
b1010 E
b1010 Q
0T
1P
1h
1i
1S
1e
b1001 <
b1001 >
b1001 M
b1001 _
b1001 :
b1001 ?
b1001 K
b1001 *
b1001 0
b1001 G
b1001 I
b0 +
b0 2
b0 J
#400001
b1010 ,"
#401000
b1 +
b1 2
b1 J
#402000
b10 +
b10 2
b10 J
#403000
b11 +
b11 2
b11 J
