alu/alu.vcd
$date
	Tue Oct 24 22:30:41 2023
$end
$version
	Icarus Verilog
$end
$timescale
	10ps
$end
$scope module alu_tb $end
$var wire 1 ! t_s $end
$var wire 1 " t_z $end
$var wire 1 # t_c $end
$var wire 4 $ t_R [3:0] $end
$var reg 1 % error $end
$var reg 1 & error_R $end
$var reg 1 ' error_c $end
$var reg 1 ( error_s $end
$var reg 1 ) error_z $end
$var reg 4 * t_A [3:0] $end
$var reg 4 + t_B [3:0] $end
$var reg 2 , t_Op [1:0] $end
$var reg 1 - t_cin $end
$var reg 1 . t_l $end
$var integer 32 / errores [31:0] $end
$scope module mat $end
$var wire 4 0 A [3:0] $end
$var wire 2 1 ALUOP [1:0] $end
$var wire 4 2 B [3:0] $end
$var wire 1 3 add1 $end
$var wire 1 - c_in $end
$var wire 1 4 cpl $end
$var wire 1 . l $end
$var wire 1 5 op1_A $end
$var wire 1 6 op2_B $end
$var wire 1 ! sign $end
$var wire 1 " zero $end
$var wire 1 # c_out $end
$var wire 4 7 R [3:0] $end
$var wire 4 8 Outul4 [3:0] $end
$var wire 4 9 Outsum4 [3:0] $end
$var wire 4 : Outop2_B [3:0] $end
$var wire 4 ; Outop1_A [3:0] $end
$var wire 4 < Outcompl1 [3:0] $end
$var wire 4 = Outadd1 [3:0] $end
$scope module compl1cpl $end
$var wire 1 4 cpl $end
$var wire 4 > Out [3:0] $end
$var wire 4 ? Inp [3:0] $end
$upscope $end
$scope module mux2_4add1 $end
$var wire 4 @ A [3:0] $end
$var wire 4 A B [3:0] $end
$var wire 4 B Out [3:0] $end
$var wire 1 3 s $end
$upscope $end
$scope module mux2_4l $end
$var wire 1 . s $end
$var wire 4 C Out [3:0] $end
$var wire 4 D B [3:0] $end
$var wire 4 E A [3:0] $end
$upscope $end
$scope module mux2_4op1_A $end
$var wire 4 F A [3:0] $end
$var wire 4 G B [3:0] $end
$var wire 1 5 s $end
$var wire 4 H Out [3:0] $end
$upscope $end
$scope module mux2_4op2_B $end
$var wire 4 I A [3:0] $end
$var wire 4 J B [3:0] $end
$var wire 1 6 s $end
$var wire 4 K Out [3:0] $end
$upscope $end
$scope module sum4c_in $end
$var wire 4 L A [3:0] $end
$var wire 4 M B [3:0] $end
$var wire 1 - c_in $end
$var wire 1 N c_out2 $end
$var wire 1 O c_out1 $end
$var wire 1 P c_out0 $end
$var wire 1 # c_out $end
$var wire 4 Q S [3:0] $end
$scope module fa0 $end
$var wire 1 R a $end
$var wire 1 S b $end
$var wire 1 - c_in $end
$var wire 1 T sum $end
$var wire 1 P c_out $end
$upscope $end
$scope module fa1 $end
$var wire 1 U a $end
$var wire 1 V b $end
$var wire 1 P c_in $end
$var wire 1 W sum $end
$var wire 1 O c_out $end
$upscope $end
$scope module fa2 $end
$var wire 1 X a $end
$var wire 1 Y b $end
$var wire 1 O c_in $end
$var wire 1 Z sum $end
$var wire 1 N c_out $end
$upscope $end
$scope module fa3 $end
$var wire 1 [ a $end
$var wire 1 \ b $end
$var wire 1 N c_in $end
$var wire 1 ] sum $end
$var wire 1 # c_out $end
$upscope $end
$upscope $end
$scope module ul4ALUOP $end
$var wire 4 ^ A [3:0] $end
$var wire 4 _ B [3:0] $end
$var wire 2 ` S [1:0] $end
$var wire 4 a Out [3:0] $end
$scope module cl0 $end
$var wire 2 b S [1:0] $end
$var wire 1 c a $end
$var wire 1 d a_not $end
$var wire 1 e b $end
$var wire 1 f c_and $end
$var wire 1 g c_not $end
$var wire 1 h c_or $end
$var wire 1 i c_xor $end
$var wire 1 j out $end
$scope module multiplexor1 $end
$var wire 2 k S [1:0] $end
$var wire 1 f a $end
$var wire 1 h b $end
$var wire 1 i c $end
$var wire 1 g d $end
$var reg 1 j out $end
$upscope $end
$upscope $end
$scope module cl1 $end
$var wire 2 l S [1:0] $end
$var wire 1 m a $end
$var wire 1 n a_not $end
$var wire 1 o b $end
$var wire 1 p c_and $end
$var wire 1 q c_not $end
$var wire 1 r c_or $end
$var wire 1 s c_xor $end
$var wire 1 t out $end
$scope module multiplexor1 $end
$var wire 2 u S [1:0] $end
$var wire 1 p a $end
$var wire 1 r b $end
$var wire 1 s c $end
$var wire 1 q d $end
$var reg 1 t out $end
$upscope $end
$upscope $end
$scope module cl2 $end
$var wire 2 v S [1:0] $end
$var wire 1 w a $end
$var wire 1 x a_not $end
$var wire 1 y b $end
$var wire 1 z c_and $end
$var wire 1 { c_not $end
$var wire 1 | c_or $end
$var wire 1 } c_xor $end
$var wire 1 ~ out $end
$scope module multiplexor1 $end
$var wire 2 !" S [1:0] $end
$var wire 1 z a $end
$var wire 1 | b $end
$var wire 1 } c $end
$var wire 1 { d $end
$var reg 1 ~ out $end
$upscope $end
$upscope $end
$scope module cl3 $end
$var wire 2 "" S [1:0] $end
$var wire 1 #" a $end
$var wire 1 $" a_not $end
$var wire 1 %" b $end
$var wire 1 &" c_and $end
$var wire 1 '" c_not $end
$var wire 1 (" c_or $end
$var wire 1 )" c_xor $end
$var wire 1 *" out $end
$scope module multiplexor1 $end
$var wire 2 +" S [1:0] $end
$var wire 1 &" a $end
$var wire 1 (" b $end
$var wire 1 )" c $end
$var wire 1 '" d $end
$var reg 1 *" out $end
$upscope $end
$upscope $end
$upscope $end
$upscope $end
$scope task check $end
$var reg 5 ," expected_R [4:0] $end
$var reg 1 -" expected_c $end
$var reg 1 ." expected_s $end
$var reg 1 /" expected_z $end
$upscope $end
$upscope $end
$enddefinitions $end
#0
$dumpvars
x/"
x."
x-"
bx ,"
b0 +"
0*"
1)"
0("
1'"
0&"
0%"
z$"
0#"
b0 ""
b0 !"
0~
1}
0|
1{
0z
0y
zx
0w
b0 v
b0 u
0t
1s
0r
1q
0p
0o
zn
0m
b0 l
b0 k
0j
0i
1h
0g
0f
0e
zd
1c
b0 b
b0 a
b0 `
b0 _
b1 ^
0]
0\
0[
0Z
0Y
0X
0W
0V
0U
1T
0S
1R
b1 Q
0P
0O
0N
b0 M
b1 L
b0 K
b0 J
b0 I
b1 H
b0 G
b1 F
b1 E
b0 D
b1 C
b1 B
b1 A
b0 @
b0 ?
b0 >
b1 =
b0 <
b1 ;
b0 :
b1 9
b0 8
b1 7
06
05
04
13
b0 2
b0 1
b0 0
b0 /
0.
0-
b0 ,
b0 +
b0 *
x)
x(
x'
x&
x%
b1 $
0#
z"
z!
$end
#1
b1 /
1%
1)
1&
1/"
0'
1(
0."
0-"
b0 ,"
#1000
b1 +
b1 2
b1 J
#1001
b10 /
#2000
b10 +
b10 2
b10 J
#2001
b11 /
#3000
b11 +
b11 2
b11 J
#3001
b100 /
#4000
b100 +
b100 2
b100 J
#4001
b101 /
#5000
b101 +
b101 2
b101 J
#5001
b110 /
#6000
b110 +
b110 2
b110 J
#6001
b111 /
#7000
b111 +
b111 2
b111 J
#7001
b1000 /
#8000
b1000 +
b1000 2
b1000 J
#8001
b1001 /
#9000
b1001 +
b1001 2
b1001 J
#9001
b1010 /
#10000
b1010 +
b1010 2
b1010 J
#10001
b1011 /
#11000
b1011 +
b1011 2
b1011 J
#11001
b1100 /
#12000
b1100 +
b1100 2
b1100 J
#12001
b1101 /
#13000
b1101 +
b1101 2
b1101 J
#13001
b1110 /
#14000
b1110 +
b1110 2
b1110 J
#14001
b1111 /
#15000
b1111 +
b1111 2
b1111 J
#15001
b10000 /
#16000
b10 $
b10 7
b10 C
1W
b1 8
b1 D
b1 a
1j
b10 9
b10 E
b10 Q
0T
1P
1f
1S
1e
b1 <
b1 >
b1 M
b1 _
b1 :
b1 ?
b1 K
b1 *
b1 0
b1 G
b1 I
b0 +
b0 2
b0 J
#16001
b10001 /
0/"
b1 ,"
#17000
b1 +
b1 2
b1 J
#17001
b10010 /
#18000
b10 +
b10 2
b10 J
#18001
b10011 /
#19000
b11 +
b11 2
b11 J
#19001
b10100 /
#20000
b100 +
b100 2
b100 J
#20001
b10101 /
#21000
b101 +
b101 2
b101 J
#21001
b10110 /
#22000
b110 +
b110 2
b110 J
#22001
b10111 /
#23000
b111 +
b111 2
b111 J
#23001
b11000 /
#24000
b1000 +
b1000 2
b1000 J
#24001
b11001 /
#25000
b1001 +
b1001 2
b1001 J
#25001
b11010 /
#26000
b1010 +
b1010 2
b1010 J
#26001
b11011 /
#27000
b1011 +
b1011 2
b1011 J
#27001
b11100 /
#28000
b1100 +
b1100 2
b1100 J
#28001
b11101 /
#29000
b1101 +
b1101 2
b1101 J
#29001
b11110 /
#30000
b1110 +
b1110 2
b1110 J
#30001
b11111 /
#31000
b1111 +
b1111 2
b1111 J
#31001
b100000 /
#32000
b11 $
b11 7
b11 C
0Z
b0 8
b0 D
b0 a
0j
0s
1T
0P
b11 9
b11 E
b11 Q
1W
0O
0f
1r
0S
1V
0e
1o
b10 <
b10 >
b10 M
b10 _
b10 :
b10 ?
b10 K
b10 *
b10 0
b10 G
b10 I
b0 +
b0 2
b0 J
#32001
b100001 /
b10 ,"
#33000
b1 +
b1 2
b1 J
#33001
b100010 /
#34000
b10 +
b10 2
b10 J
#34001
b100011 /
#35000
b11 +
b11 2
b11 J
#35001
b100100 /
#36000
b100 +
b100 2
b100 J
#36001
b100101 /
#37000
b101 +
b101 2
b101 J
#37001
b100110 /
#38000
b110 +
b110 2
b110 J
#38001
b100111 /
#39000
b111 +
b111 2
b111 J
#39001
b101000 /
#40000
b1000 +
b1000 2
b1000 J
#40001
b101001 /
#41000
b1001 +
b1001 2
b1001 J
#41001
b101010 /
#42000
b1010 +
b1010 2
b1010 J
#42001
b101011 /
#43000
b1011 +
b1011 2
b1011 J
#43001
b101100 /
#44000
b1100 +
b1100 2
b1100 J
#44001
b101101 /
#45000
b1101 +
b1101 2
b1101 J
#45001
b101110 /
#46000
b1110 +
b1110 2
b1110 J
#46001
b101111 /
#47000
b1111 +
b1111 2
b1111 J
#47001
b110000 /
#48000
1Z
b100 $
b100 7
b100 C
0W
1O
b1 8
b1 D
b1 a
1j
b100 9
b100 E
b100 Q
0T
1P
1f
1S
1e
b11 <
b11 >
b11 M
b11 _
b11 :
b11 ?
b11 K
b11 *
b11 0
b11 G
b11 I
b0 +
b0 2
b0 J
#48001
b110001 /
b11 ,"
#49000
b1 +
b1 2
b1 J
#49001
b110010 /
#50000
b10 +
b10 2
b10 J
#50001
b110011 /
#51000
b11 +
b11 2
b11 J
#51001
b110100 /
#52000
b100 +
b100 2
b100 J
#52001
b110101 /
#53000
b101 +
b101 2
b101 J
#53001
b110110 /
#54000
b110 +
b110 2
b110 J
#54001
b110111 /
#55000
b111 +
b111 2
b111 J
#55001
b111000 /
#56000
b1000 +
b1000 2
b1000 J
#56001
b111001 /
#57000
b1001 +
b1001 2
b1001 J
#57001
b111010 /
#58000
b1010 +
b1010 2
b1010 J
#58001
b111011 /
#59000
b1011 +
b1011 2
b1011 J
#59001
b111100 /
#60000
b1100 +
b1100 2
b1100 J
#60001
b111101 /
#61000
b1101 +
b1101 2
b1101 J
#61001
b111110 /
#62000
b1110 +
b1110 2
b1110 J
#62001
b111111 /
#63000
b1111 +
b1111 2
b1111 J
#63001
b1000000 /
#64000
b101 $
b101 7
b101 C
0]
b0 8
b0 D
b0 a
0j
1s
0}
1T
0P
0W
0O
b101 9
b101 E
b101 Q
1Z
0N
0f
0r
1|
0S
0V
1Y
0e
0o
1y
b100 <
b100 >
b100 M
b100 _
b100 :
b100 ?
b100 K
b100 *
b100 0
b100 G
b100 I
b0 +
b0 2
b0 J
#64001
b1000001 /
b100 ,"
#65000
b1 +
b1 2
b1 J
#65001
b1000010 /
#66000
b10 +
b10 2
b10 J
#66001
b1000011 /
#67000
b11 +
b11 2
b11 J
#67001
b1000100 /
#68000
b100 +
b100 2
b100 J
#68001
b1000101 /
#69000
b101 +
b101 2
b101 J
#69001
b1000110 /
#70000
b110 +
b110 2
b110 J
#70001
b1000111 /
#71000
b111 +
b111 2
b111 J
#71001
b1001000 /
#72000
b1000 +
b1000 2
b1000 J
#72001
b1001001 /
#73000
b1001 +
b1001 2
b1001 J
#73001
b1001010 /
#74000
b1010 +
b1010 2
b1010 J
#74001
b1001011 /
#75000
b1011 +
b1011 2
b1011 J
#75001
b1001100 /
#76000
b1100 +
b1100 2
b1100 J
#76001
b1001101 /
#77000
b1101 +
b1101 2
b1101 J
#77001
b1001110 /
#78000
b1110 +
b1110 2
b1110 J
#78001
b1001111 /
#79000
b1111 +
b1111 2
b1111 J
#79001
b1010000 /
#80000
b110 $
b110 7
b110 C
1W
b1 8
b1 D
b1 a
1j
b110 9
b110 E
b110 Q
0T
1P
1f
1S
1e
b101 <
b101 >
b101 M
b101 _
b101 :
b101 ?
b101 K
b101 *
b101 0
b101 G
b101 I
b0 +
b0 2
b0 J
#80001
b1010001 /
b101 ,"
#81000
b1 +
b1 2
b1 J
#81001
b1010010 /
#82000
b10 +
b10 2
b10 J
#82001
b1010011 /
#83000
b11 +
b11 2
b11 J
#83001
b1010100 /
#84000
b100 +
b100 2
b100 J
#84001
b1010101 /
#85000
b101 +
b101 2
b101 J
#85001
b1010110 /
#86000
b110 +
b110 2
b110 J
#86001
b1010111 /
#87000
b111 +
b111 2
b111 J
#87001
b1011000 /
#88000
b1000 +
b1000 2
b1000 J
#88001
b1011001 /
#89000
b1001 +
b1001 2
b1001 J
#89001
b1011010 /
#90000
b1010 +
b1010 2
b1010 J
#90001
b1011011 /
#91000
b1011 +
b1011 2
b1011 J
#91001
b1011100 /
#92000
b1100 +
b1100 2
b1100 J
#92001
b1011101 /
#93000
b1101 +
b1101 2
b1101 J
#93001
b1011110 /
#94000
b1110 +
b1110 2
b1110 J
#94001
b1011111 /
#95000
b1111 +
b1111 2
b1111 J
#95001
b1100000 /
#96000
0]
b111 $
b111 7
b111 C
1Z
0N
b0 8
b0 D
b0 a
0j
0s
1T
0P
b111 9
b111 E
b111 Q
1W
0O
0f
1r
0S
1V
0e
1o
b110 <
b110 >
b110 M
b110 _
b110 :
b110 ?
b110 K
b110 *
b110 0
b110 G
b110 I
b0 +
b0 2
b0 J
#96001
b1100001 /
b110 ,"
#97000
b1 +
b1 2
b1 J
#97001
b1100010 /
#98000
b10 +
b10 2
b10 J
#98001
b1100011 /
#99000
b11 +
b11 2
b11 J
#99001
b1100100 /
#100000
b100 +
b100 2
b100 J
#100001
b1100101 /
#101000
b101 +
b101 2
b101 J
#101001
b1100110 /
#102000
b110 +
b110 2
b110 J
#102001
b1100111 /
#103000
b111 +
b111 2
b111 J
#103001
b1101000 /
#104000
b1000 +
b1000 2
b1000 J
#104001
b1101001 /
#105000
b1001 +
b1001 2
b1001 J
#105001
b1101010 /
#106000
b1010 +
b1010 2
b1010 J
#106001
b1101011 /
#107000
b1011 +
b1011 2
b1011 J
#107001
b1101100 /
#108000
b1100 +
b1100 2
b1100 J
#108001
b1101101 /
#109000
b1101 +
b1101 2
b1101 J
#109001
b1101110 /
#110000
b1110 +
b1110 2
b1110 J
#110001
b1101111 /
#111000
b1111 +
b1111 2
b1111 J
#111001
b1110000 /
#112000
1]
0Z
1N
b1000 $
b1000 7
b1000 C
0W
1O
b1 8
b1 D
b1 a
1j
b1000 9
b1000 E
b1000 Q
0T
1P
1f
1S
1e
b111 <
b111 >
b111 M
b111 _
b111 :
b111 ?
b111 K
b111 *
b111 0
b111 G
b111 I
b0 +
b0 2
b0 J
#112001
b1110001 /
b111 ,"
#113000
b1 +
b1 2
b1 J
#113001
b1110010 /
#114000
b10 +
b10 2
b10 J
#114001
b1110011 /
#115000
b11 +
b11 2
b11 J
#115001
b1110100 /
#116000
b100 +
b100 2
b100 J
#116001
b1110101 /
#117000
b101 +
b101 2
b101 J
#117001
b1110110 /
#118000
b110 +
b110 2
b110 J
#118001
b1110111 /
#119000
b111 +
b111 2
b111 J
#119001
b1111000 /
#120000
b1000 +
b1000 2
b1000 J
#120001
b1111001 /
#121000
b1001 +
b1001 2
b1001 J
#121001
b1111010 /
#122000
b1010 +
b1010 2
b1010 J
#122001
b1111011 /
#123000
b1011 +
b1011 2
b1011 J
#123001
b1111100 /
#124000
b1100 +
b1100 2
b1100 J
#124001
b1111101 /
#125000
b1101 +
b1101 2
b1101 J
#125001
b1111110 /
#126000
b1110 +
b1110 2
b1110 J
#126001
b1111111 /
#127000
b1111 +
b1111 2
b1111 J
#127001
b10000000 /
#128000
b1001 $
b1001 7
b1001 C
b0 8
b0 D
b0 a
0j
1s
1}
0)"
1T
0P
0W
0O
0Z
0N
b1001 9
b1001 E
b1001 Q
1]
0#
0f
0r
0|
1("
0S
0V
0Y
1\
0e
0o
0y
1%"
b1000 <
b1000 >
b1000 M
b1000 _
b1000 :
b1000 ?
b1000 K
b1000 *
b1000 0
b1000 G
b1000 I
b0 +
b0 2
b0 J
#128001
b10000001 /
1."
b1000 ,"
#129000
b1 +
b1 2
b1 J
#129001
b10000010 /
#130000
b10 +
b10 2
b10 J
#130001
b10000011 /
#131000
b11 +
b11 2
b11 J
#131001
b10000100 /
#132000
b100 +
b100 2
b100 J
#132001
b10000101 /
#133000
b101 +
b101 2
b101 J
#133001
b10000110 /
#134000
b110 +
b110 2
b110 J
#134001
b10000111 /
#135000
b111 +
b111 2
b111 J
#135001
b10001000 /
#136000
b1000 +
b1000 2
b1000 J
#136001
b10001001 /
#137000
b1001 +
b1001 2
b1001 J
#137001
b10001010 /
#138000
b1010 +
b1010 2
b1010 J
#138001
b10001011 /
#139000
b1011 +
b1011 2
b1011 J
#139001
b10001100 /
#140000
b1100 +
b1100 2
b1100 J
#140001
b10001101 /
#141000
b1101 +
b1101 2
b1101 J
#141001
b10001110 /
#142000
b1110 +
b1110 2
b1110 J
#142001
b10001111 /
#143000
b1111 +
b1111 2
b1111 J
#143001
b10010000 /
#144000
b1010 $
b1010 7
b1010 C
1W
b1 8
b1 D
b1 a
1j
b1010 9
b1010 E
b1010 Q
0T
1P
1f
1S
1e
b1001 <
b1001 >
b1001 M
b1001 _
b1001 :
b1001 ?
b1001 K
b1001 *
b1001 0
b1001 G
b1001 I
b0 +
b0 2
b0 J
#144001
b10010001 /
b1001 ,"
#145000
b1 +
b1 2
b1 J
#145001
b10010010 /
#146000
b10 +
b10 2
b10 J
#146001
b10010011 /
#147000
b11 +
b11 2
b11 J
#147001
b10010100 /
#148000
b100 +
b100 2
b100 J
#148001
b10010101 /
#149000
b101 +
b101 2
b101 J
#149001
b10010110 /
#150000
b110 +
b110 2
b110 J
#150001
b10010111 /
#151000
b111 +
b111 2
b111 J
#151001
b10011000 /
#152000
b1000 +
b1000 2
b1000 J
#152001
b10011001 /
#153000
b1001 +
b1001 2
b1001 J
#153001
b10011010 /
#154000
b1010 +
b1010 2
b1010 J
#154001
b10011011 /
#155000
b1011 +
b1011 2
b1011 J
#155001
b10011100 /
#156000
b1100 +
b1100 2
b1100 J
#156001
b10011101 /
#157000
b1101 +
b1101 2
b1101 J
#157001
b10011110 /
#158000
b1110 +
b1110 2
b1110 J
#158001
b10011111 /
#159000
b1111 +
b1111 2
b1111 J
#159001
b10100000 /
#160000
b1011 $
b1011 7
b1011 C
0Z
b0 8
b0 D
b0 a
0j
0s
1T
0P
b1011 9
b1011 E
b1011 Q
1W
0O
0f
1r
0S
1V
0e
1o
b1010 <
b1010 >
b1010 M
b1010 _
b1010 :
b1010 ?
b1010 K
b1010 *
b1010 0
b1010 G
b1010 I
b0 +
b0 2
b0 J
#160001
b10100001 /
b1010 ,"
#161000
b1 +
b1 2
b1 J
#161001
b10100010 /
#162000
b10 +
b10 2
b10 J
#162001
b10100011 /
#163000
b11 +
b11 2
b11 J
#163001
b10100100 /
#164000
b100 +
b100 2
b100 J
#164001
b10100101 /
#165000
b101 +
b101 2
b101 J
#165001
b10100110 /
#166000
b110 +
b110 2
b110 J
#166001
b10100111 /
#167000
b111 +
b111 2
b111 J
#167001
b10101000 /
#168000
b1000 +
b1000 2
b1000 J
#168001
b10101001 /
#169000
b1001 +
b1001 2
b1001 J
#169001
b10101010 /
#170000
b1010 +
b1010 2
b1010 J
#170001
b10101011 /
#171000
b1011 +
b1011 2
b1011 J
#171001
b10101100 /
#172000
b1100 +
b1100 2
b1100 J
#172001
b10101101 /
#173000
b1101 +
b1101 2
b1101 J
#173001
b10101110 /
#174000
b1110 +
b1110 2
b1110 J
#174001
b10101111 /
#175000
b1111 +
b1111 2
b1111 J
#175001
b10110000 /
#176000
1Z
b1100 $
b1100 7
b1100 C
0W
1O
b1 8
b1 D
b1 a
1j
b1100 9
b1100 E
b1100 Q
0T
1P
1f
1S
1e
b1011 <
b1011 >
b1011 M
b1011 _
b1011 :
b1011 ?
b1011 K
b1011 *
b1011 0
b1011 G
b1011 I
b0 +
b0 2
b0 J
#176001
b10110001 /
b1011 ,"
#177000
b1 +
b1 2
b1 J
#177001
b10110010 /
#178000
b10 +
b10 2
b10 J
#178001
b10110011 /
#179000
b11 +
b11 2
b11 J
#179001
b10110100 /
#180000
b100 +
b100 2
b100 J
#180001
b10110101 /
#181000
b101 +
b101 2
b101 J
#181001
b10110110 /
#182000
b110 +
b110 2
b110 J
#182001
b10110111 /
#183000
b111 +
b111 2
b111 J
#183001
b10111000 /
#184000
b1000 +
b1000 2
b1000 J
#184001
b10111001 /
#185000
b1001 +
b1001 2
b1001 J
#185001
b10111010 /
#186000
b1010 +
b1010 2
b1010 J
#186001
b10111011 /
#187000
b1011 +
b1011 2
b1011 J
#187001
b10111100 /
#188000
b1100 +
b1100 2
b1100 J
#188001
b10111101 /
#189000
b1101 +
b1101 2
b1101 J
#189001
b10111110 /
#190000
b1110 +
b1110 2
b1110 J
#190001
b10111111 /
#191000
b1111 +
b1111 2
b1111 J
#191001
b11000000 /
#192000
b1101 $
b1101 7
b1101 C
1]
0#
b0 8
b0 D
b0 a
0j
1s
0}
1T
0P
0W
0O
b1101 9
b1101 E
b1101 Q
1Z
0N
0f
0r
1|
0S
0V
1Y
0e
0o
1y
b1100 <
b1100 >
b1100 M
b1100 _
b1100 :
b1100 ?
b1100 K
b1100 *
b1100 0
b1100 G
b1100 I
b0 +
b0 2
b0 J
#192001
b11000001 /
b1100 ,"
#193000
b1 +
b1 2
b1 J
#193001
b11000010 /
#194000
b10 +
b10 2
b10 J
#194001
b11000011 /
#195000
b11 +
b11 2
b11 J
#195001
b11000100 /
#196000
b100 +
b100 2
b100 J
#196001
b11000101 /
#197000
b101 +
b101 2
b101 J
#197001
b11000110 /
#198000
b110 +
b110 2
b110 J
#198001
b11000111 /
#199000
b111 +
b111 2
b111 J
#199001
b11001000 /
#200000
b1000 +
b1000 2
b1000 J
#200001
b11001001 /
#201000
b1001 +
b1001 2
b1001 J
#201001
b11001010 /
#202000
b1010 +
b1010 2
b1010 J
#202001
b11001011 /
#203000
b1011 +
b1011 2
b1011 J
#203001
b11001100 /
#204000
b1100 +
b1100 2
b1100 J
#204001
b11001101 /
#205000
b1101 +
b1101 2
b1101 J
#205001
b11001110 /
#206000
b1110 +
b1110 2
b1110 J
#206001
b11001111 /
#207000
b1111 +
b1111 2
b1111 J
#207001
b11010000 /
#208000
b1110 $
b1110 7
b1110 C
1W
b1 8
b1 D
b1 a
1j
b1110 9
b1110 E
b1110 Q
0T
1P
1f
1S
1e
b1101 <
b1101 >
b1101 M
b1101 _
b1101 :
b1101 ?
b1101 K
b1101 *
b1101 0
b1101 G
b1101 I
b0 +
b0 2
b0 J
#208001
b11010001 /
b1101 ,"
#209000
b1 +
b1 2
b1 J
#209001
b11010010 /
#210000
b10 +
b10 2
b10 J
#210001
b11010011 /
#211000
b11 +
b11 2
b11 J
#211001
b11010100 /
#212000
b100 +
b100 2
b100 J
#212001
b11010101 /
#213000
b101 +
b101 2
b101 J
#213001
b11010110 /
#214000
b110 +
b110 2
b110 J
#214001
b11010111 /
#215000
b111 +
b111 2
b111 J
#215001
b11011000 /
#216000
b1000 +
b1000 2
b1000 J
#216001
b11011001 /
#217000
b1001 +
b1001 2
b1001 J
#217001
b11011010 /
#218000
b1010 +
b1010 2
b1010 J
#218001
b11011011 /
#219000
b1011 +
b1011 2
b1011 J
#219001
b11011100 /
#220000
b1100 +
b1100 2
b1100 J
#220001
b11011101 /
#221000
b1101 +
b1101 2
b1101 J
#221001
b11011110 /
#222000
b1110 +
b1110 2
b1110 J
#222001
b11011111 /
#223000
b1111 +
b1111 2
b1111 J
#223001
b11100000 /
#224000
1]
0#
b1111 $
b1111 7
b1111 C
1Z
0N
b0 8
b0 D
b0 a
0j
0s
1T
0P
b1111 9
b1111 E
b1111 Q
1W
0O
0f
1r
0S
1V
0e
1o
b1110 <
b1110 >
b1110 M
b1110 _
b1110 :
b1110 ?
b1110 K
b1110 *
b1110 0
b1110 G
b1110 I
b0 +
b0 2
b0 J
#224001
b11100001 /
b1110 ,"
#225000
b1 +
b1 2
b1 J
#225001
b11100010 /
#226000
b10 +
b10 2
b10 J
#226001
b11100011 /
#227000
b11 +
b11 2
b11 J
#227001
b11100100 /
#228000
b100 +
b100 2
b100 J
#228001
b11100101 /
#229000
b101 +
b101 2
b101 J
#229001
b11100110 /
#230000
b110 +
b110 2
b110 J
#230001
b11100111 /
#231000
b111 +
b111 2
b111 J
#231001
b11101000 /
#232000
b1000 +
b1000 2
b1000 J
#232001
b11101001 /
#233000
b1001 +
b1001 2
b1001 J
#233001
b11101010 /
#234000
b1010 +
b1010 2
b1010 J
#234001
b11101011 /
#235000
b1011 +
b1011 2
b1011 J
#235001
b11101100 /
#236000
b1100 +
b1100 2
b1100 J
#236001
b11101101 /
#237000
b1101 +
b1101 2
b1101 J
#237001
b11101110 /
#238000
b1110 +
b1110 2
b1110 J
#238001
b11101111 /
#239000
b1111 +
b1111 2
b1111 J
#239001
b11110000 /
#240000
0]
1#
0Z
1N
b0 $
b0 7
b0 C
0W
1O
b1 8
b1 D
b1 a
1j
b0 9
b0 E
b0 Q
0T
1P
1f
1S
1e
b1111 <
b1111 >
b1111 M
b1111 _
b1111 :
b1111 ?
b1111 K
b1111 *
b1111 0
b1111 G
b1111 I
b0 +
b0 2
b0 J
#240001
b11110001 /
1'
b1111 ,"
#241000
b1 +
b1 2
b1 J
#241001
b11110010 /
#242000
b10 +
b10 2
b10 J
#242001
b11110011 /
#243000
b11 +
b11 2
b11 J
#243001
b11110100 /
#244000
b100 +
b100 2
b100 J
#244001
b11110101 /
#245000
b101 +
b101 2
b101 J
#245001
b11110110 /
#246000
b110 +
b110 2
b110 J
#246001
b11110111 /
#247000
b111 +
b111 2
b111 J
#247001
b11111000 /
#248000
b1000 +
b1000 2
b1000 J
#248001
b11111001 /
#249000
b1001 +
b1001 2
b1001 J
#249001
b11111010 /
#250000
b1010 +
b1010 2
b1010 J
#250001
b11111011 /
#251000
b1011 +
b1011 2
b1011 J
#251001
b11111100 /
#252000
b1100 +
b1100 2
b1100 J
#252001
b11111101 /
#253000
b1101 +
b1101 2
b1101 J
#253001
b11111110 /
#254000
b1110 +
b1110 2
b1110 J
#254001
b11111111 /
#255000
b1111 +
b1111 2
b1111 J
#255001
b100000000 /
#256000
b0 8
b0 D
b0 a
0j
1s
1}
1)"
1W
0O
0Z
0N
0]
0#
0f
0r
0|
0("
0S
0V
0Y
0\
0e
0o
0y
0%"
b10 $
b10 7
b10 C
b0 <
b0 >
b0 M
b0 _
b10 9
b10 E
b10 Q
0T
b0 :
b0 ?
b0 K
1-
b0 *
b0 0
b0 G
b0 I
b0 +
b0 2
b0 J
#256001
b100000001 /
0'
0."
b1 ,"
#257000
b1 +
b1 2
b1 J
#257001
b100000010 /
#258000
b10 +
b10 2
b10 J
#258001
b100000011 /
#259000
b11 +
b11 2
b11 J
#259001
b100000100 /
#260000
b100 +
b100 2
b100 J
#260001
b100000101 /
#261000
b101 +
b101 2
b101 J
#261001
b100000110 /
#262000
b110 +
b110 2
b110 J
#262001
b100000111 /
#263000
b111 +
b111 2
b111 J
#263001
b100001000 /
#264000
b1000 +
b1000 2
b1000 J
#264001
b100001001 /
#265000
b1001 +
b1001 2
b1001 J
#265001
b100001010 /
#266000
b1010 +
b1010 2
b1010 J
#266001
b100001011 /
#267000
b1011 +
b1011 2
b1011 J
#267001
b100001100 /
#268000
b1100 +
b1100 2
b1100 J
#268001
b100001101 /
#269000
b1101 +
b1101 2
b1101 J
#269001
b100001110 /
#270000
b1110 +
b1110 2
b1110 J
#270001
b100001111 /
#271000
b1111 +
b1111 2
b1111 J
#271001
b100010000 /
#272000
b11 $
b11 7
b11 C
b1 8
b1 D
b1 a
1j
b11 9
b11 E
b11 Q
1T
1f
1S
1e
b1 <
b1 >
b1 M
b1 _
b1 :
b1 ?
b1 K
b1 *
b1 0
b1 G
b1 I
b0 +
b0 2
b0 J
#272001
b100010001 /
b10 ,"
#273000
b1 +
b1 2
b1 J
#273001
b100010010 /
#274000
b10 +
b10 2
b10 J
#274001
b100010011 /
#275000
b11 +
b11 2
b11 J
#275001
b100010100 /
#276000
b100 +
b100 2
b100 J
#276001
b100010101 /
#277000
b101 +
b101 2
b101 J
#277001
b100010110 /
#278000
b110 +
b110 2
b110 J
#278001
b100010111 /
#279000
b111 +
b111 2
b111 J
#279001
b100011000 /
#280000
b1000 +
b1000 2
b1000 J
#280001
b100011001 /
#281000
b1001 +
b1001 2
b1001 J
#281001
b100011010 /
#282000
b1010 +
b1010 2
b1010 J
#282001
b100011011 /
#283000
b1011 +
b1011 2
b1011 J
#283001
b100011100 /
#284000
b1100 +
b1100 2
b1100 J
#284001
b100011101 /
#285000
b1101 +
b1101 2
b1101 J
#285001
b100011110 /
#286000
b1110 +
b1110 2
b1110 J
#286001
b100011111 /
#287000
b1111 +
b1111 2
b1111 J
#287001
b100100000 /
